{
  "@id": "fake-cycle",
  "@type": "Cycle",
  "site": {
    "id": "fake-site",
    "type": "Site"
  },
  "defaultSource": {
    "@id": "fake-source",
    "@type": "Source"
  },
  "functionalUnit": "relative",
  "endDate": "2012",
  "cycleDuration": 365,
  "emissions": [
    {
      "term": {
        "@type": "Term",
        "termType": "emission",
        "@id": "n2OToAirSoilFlux"
      },
      "value": [
        254
      ],
      "methodTier": "measured",
      "methodModel": {
        "@id": "emepEea2019",
        "@type": "Term",
        "name": "EMEP-EEA (2019)",
        "termType": "model"
      },
      "@type": "Emission"
    },
    {
      "term": {
        "@type": "Term",
        "name": "NOx, to air, aquaculture systems",
        "termType": "emission",
        "@id": "noxToAirAquacultureSystems",
        "units": "kg NOx"
      },
      "value": [
        0.16
      ],
      "methodTier": "measured",
      "methodModel": {
        "@type": "Term",
        "name": "Closed chamber, static",
        "termType": "methodEmissionResourceUse",
        "@id": "closedChamberStatic"
      },
      "deleted": true,
      "@type": "Emission"
    }
  ],
  "name": "random cycle",
  "dataPrivate": false,
  "completeness": {
    "electricityFuel": true,
    "material": true,
    "fertiliser": true,
    "water": true,
    "cropResidue": true,
    "animalFeed": false,
    "transport": true,
    "@type": "Completeness",
    "excreta": true,
    "waste": true,
    "seed": false,
    "pesticideVeterinaryDrug": false,
    "liveAnimalInput": true,
    "operation": true,
    "soilAmendment": true,
    "product": true,
    "otherChemical": false,
    "freshForage": false,
    "ingredient": false,
    "animalPopulation": false
  },
  "defaultMethodClassification": "modelled",
  "defaultMethodClassificationDescription": "description",
  "startDateDefinition": "one year prior"
}
